risc_v_tb/risc_v.vcd
$version Generated by VerilatedVcd $end
$date Thu Nov 17 15:38:17 2022 $end
$timescale 1ps $end

 $scope module TOP $end
  $var wire  4 % a0 [3:0] $end
  $var wire  1 # clk $end
  $var wire  1 $ rst $end
  $scope module risc_v $end
   $var wire  4 % a0 [3:0] $end
   $var wire  1 # clk $end
   $var wire  1 $ rst $end
   $var wire  4 & sreg [3:0] $end
  $upscope $end
 $upscope $end
$enddefinitions $end


#0
1#
0$
b0000 %
b0000 &
#1
0#
#2
1#
#3
0#
#4
1#
#5
0#
#6
1#
#7
0#
#8
1#
#9
0#
#10
1#
#11
0#
#12
1#
#13
0#
#14
1#
#15
0#
#16
1#
#17
0#
#18
1#
#19
0#
#20
1#
#21
0#
#22
1#
#23
0#
#24
1#
#25
0#
#26
1#
#27
0#
#28
1#
#29
0#
#30
1#
#31
0#
#32
1#
#33
0#
#34
1#
#35
0#
#36
1#
#37
0#
#38
1#
#39
0#
#40
1#
#41
0#
#42
1#
#43
0#
#44
1#
#45
0#
#46
1#
#47
0#
#48
1#
#49
0#
#50
1#
#51
0#
#52
1#
#53
0#
#54
1#
1$
#55
0#
b0001 %
b0001 &
#56
1#
0$
#57
0#
#58
1#
b0010 %
b0010 &
#59
0#
#60
1#
b0100 %
b0100 &
#61
0#
#62
1#
b1001 %
b1001 &
#63
0#
#64
1#
b0011 %
b0011 &
#65
0#
#66
1#
b0110 %
b0110 &
#67
0#
#68
1#
1$
b1101 %
b1101 &
#69
0#
b0001 %
b0001 &
#70
1#
0$
#71
0#
#72
1#
b0010 %
b0010 &
#73
0#
#74
1#
b0100 %
b0100 &
#75
0#
#76
1#
b1001 %
b1001 &
#77
0#
#78
1#
b0011 %
b0011 &
#79
0#
#80
1#
b0110 %
b0110 &
#81
0#
#82
1#
b1101 %
b1101 &
#83
0#
#84
1#
b1010 %
b1010 &
#85
0#
#86
1#
b0101 %
b0101 &
#87
0#
#88
1#
b1011 %
b1011 &
#89
0#
#90
1#
b0111 %
b0111 &
#91
0#
#92
1#
b1111 %
b1111 &
#93
0#
#94
1#
b1110 %
b1110 &
#95
0#
#96
1#
b1100 %
b1100 &
#97
0#
#98
1#
b1000 %
b1000 &
#99
0#
#100
1#
b0001 %
b0001 &
#101
0#
#102
1#
b0010 %
b0010 &
#103
0#
#104
1#
b0100 %
b0100 &
#105
0#
#106
1#
b1001 %
b1001 &
#107
0#
#108
1#
b0011 %
b0011 &
#109
0#
#110
1#
b0110 %
b0110 &
#111
0#
#112
1#
b1101 %
b1101 &
#113
0#
#114
1#
b1010 %
b1010 &
#115
0#
#116
1#
b0101 %
b0101 &
#117
0#
#118
1#
b1011 %
b1011 &
#119
0#
#120
1#
1$
b0111 %
b0111 &
#121
0#
b0001 %
b0001 &
#122
1#
0$
#123
0#
#124
1#
b0010 %
b0010 &
#125
0#
#126
1#
b0100 %
b0100 &
#127
0#
#128
1#
b1001 %
b1001 &
#129
0#
#130
1#
b0011 %
b0011 &
#131
0#
#132
1#
b0110 %
b0110 &
#133
0#
#134
1#
b1101 %
b1101 &
#135
0#
#136
1#
b1010 %
b1010 &
#137
0#
#138
1#
b0101 %
b0101 &
#139
0#
#140
1#
b1011 %
b1011 &
#141
0#
#142
1#
b0111 %
b0111 &
#143
0#
#144
1#
b1111 %
b1111 &
#145
0#
#146
1#
b1110 %
b1110 &
#147
0#
#148
1#
b1100 %
b1100 &
#149
0#
#150
1#
b1000 %
b1000 &
#151
0#
#152
1#
b0001 %
b0001 &
#153
0#
#154
1#
b0010 %
b0010 &
#155
0#
#156
1#
b0100 %
b0100 &
#157
0#
#158
1#
b1001 %
b1001 &
#159
0#
#160
1#
b0011 %
b0011 &
#161
0#
#162
1#
b0110 %
b0110 &
#163
0#
#164
1#
b1101 %
b1101 &
#165
0#
#166
1#
b1010 %
b1010 &
#167
0#
#168
1#
b0101 %
b0101 &
#169
0#
#170
1#
b1011 %
b1011 &
#171
0#
#172
1#
b0111 %
b0111 &
#173
0#
#174
1#
b1111 %
b1111 &
#175
0#
#176
1#
b1110 %
b1110 &
#177
0#
#178
1#
b1100 %
b1100 &
#179
0#
#180
1#
b1000 %
b1000 &
#181
0#
#182
1#
b0001 %
b0001 &
#183
0#
#184
1#
b0010 %
b0010 &
#185
0#
#186
1#
b0100 %
b0100 &
#187
0#
#188
1#
b1001 %
b1001 &
#189
0#
#190
1#
b0011 %
b0011 &
#191
0#
#192
1#
b0110 %
b0110 &
#193
0#
#194
1#
b1101 %
b1101 &
#195
0#
#196
1#
b1010 %
b1010 &
#197
0#
#198
1#
b0101 %
b0101 &
